[gd_scene load_steps=2 format=3 uid="uid://bch4tmvw8owwu"]

[ext_resource type="Script" path="res://scenes/game/car/CarBehavior.gd" id="1_bog3m"]

[node name="CarBehavior" type="Node"]
script = ExtResource("1_bog3m")
