[gd_scene load_steps=4 format=3 uid="uid://cw51hgcigpvgl"]

[ext_resource type="PackedScene" uid="uid://cfuej8wduy0w5" path="res://scenes/ui/Start.tscn" id="1_dn6bb"]
[ext_resource type="Script" path="res://scenes/Start.gd" id="1_vnxye"]
[ext_resource type="PackedScene" uid="uid://bw1m615lsnyyx" path="res://scenes/game/GameConnector.tscn" id="3_g76a7"]

[node name="Main" type="Node"]
script = ExtResource("1_vnxye")

[node name="Start" parent="." instance=ExtResource("1_dn6bb")]
z_index = 4

[node name="GameConnector" parent="." instance=ExtResource("3_g76a7")]
