[gd_scene load_steps=2 format=3 uid="uid://cx541nddrvqi1"]

[ext_resource type="Script" path="res://scenes/game/tree/TreeBehavior.gd" id="1_ej6bh"]

[node name="TreeBehavior" type="Node"]
script = ExtResource("1_ej6bh")
