[gd_scene load_steps=2 format=3 uid="uid://bruo2n42dekio"]

[ext_resource type="PackedScene" uid="uid://cigci3bbp2qw" path="res://scenes/ui/car_frame.tscn" id="1_oguyi"]

[node name="CarAnimationManager" type="Node"]

[node name="CarFrame" parent="." instance=ExtResource("1_oguyi")]
z_index = -1
