[gd_scene load_steps=8 format=3 uid="uid://dqr5llap3guik"]

[ext_resource type="Texture2D" uid="uid://cgj4o7qbvt0od" path="res://assets/sprites/spritesheets/radio-reset.png" id="1_k8jao"]

[sub_resource type="CompressedTexture2D" id="CompressedTexture2D_pl4l6"]
load_path = "res://.godot/imported/radio-reset.png-51ba7ec85314782eaa48cf1ee9cb479a.ctex"

[sub_resource type="Animation" id="Animation_xuuf6"]
length = 0.1
loop_mode = 2
tracks/0/type = "value"
tracks/0/imported = false
tracks/0/enabled = true
tracks/0/path = NodePath("Sprite2D:texture")
tracks/0/interp = 1
tracks/0/loop_wrap = false
tracks/0/keys = {
"times": PackedFloat32Array(0),
"transitions": PackedFloat32Array(1),
"update": 1,
"values": [SubResource("CompressedTexture2D_pl4l6")]
}
tracks/1/type = "value"
tracks/1/imported = false
tracks/1/enabled = true
tracks/1/path = NodePath("Sprite2D:hframes")
tracks/1/interp = 1
tracks/1/loop_wrap = false
tracks/1/keys = {
"times": PackedFloat32Array(0),
"transitions": PackedFloat32Array(1),
"update": 1,
"values": [2]
}
tracks/2/type = "value"
tracks/2/imported = false
tracks/2/enabled = true
tracks/2/path = NodePath("Sprite2D:vframes")
tracks/2/interp = 1
tracks/2/loop_wrap = false
tracks/2/keys = {
"times": PackedFloat32Array(0),
"transitions": PackedFloat32Array(1),
"update": 1,
"values": [2]
}
tracks/3/type = "value"
tracks/3/imported = false
tracks/3/enabled = true
tracks/3/path = NodePath("Sprite2D:visible")
tracks/3/interp = 1
tracks/3/loop_wrap = false
tracks/3/keys = {
"times": PackedFloat32Array(0),
"transitions": PackedFloat32Array(1),
"update": 1,
"values": [true]
}
tracks/4/type = "value"
tracks/4/imported = false
tracks/4/enabled = true
tracks/4/path = NodePath("Sprite2D:frame")
tracks/4/interp = 1
tracks/4/loop_wrap = false
tracks/4/keys = {
"times": PackedFloat32Array(0),
"transitions": PackedFloat32Array(1),
"update": 1,
"values": [2]
}

[sub_resource type="Animation" id="Animation_67o2d"]
length = 0.5
tracks/0/type = "value"
tracks/0/imported = false
tracks/0/enabled = true
tracks/0/path = NodePath("Sprite2D:texture")
tracks/0/interp = 1
tracks/0/loop_wrap = false
tracks/0/keys = {
"times": PackedFloat32Array(0),
"transitions": PackedFloat32Array(1),
"update": 1,
"values": [ExtResource("1_k8jao")]
}
tracks/1/type = "value"
tracks/1/imported = false
tracks/1/enabled = true
tracks/1/path = NodePath("Sprite2D:hframes")
tracks/1/interp = 1
tracks/1/loop_wrap = false
tracks/1/keys = {
"times": PackedFloat32Array(0),
"transitions": PackedFloat32Array(1),
"update": 1,
"values": [2]
}
tracks/2/type = "value"
tracks/2/imported = false
tracks/2/enabled = true
tracks/2/path = NodePath("Sprite2D:vframes")
tracks/2/interp = 1
tracks/2/loop_wrap = false
tracks/2/keys = {
"times": PackedFloat32Array(0),
"transitions": PackedFloat32Array(1),
"update": 1,
"values": [2]
}
tracks/3/type = "value"
tracks/3/imported = false
tracks/3/enabled = true
tracks/3/path = NodePath("Sprite2D:visible")
tracks/3/interp = 1
tracks/3/loop_wrap = false
tracks/3/keys = {
"times": PackedFloat32Array(0),
"transitions": PackedFloat32Array(1),
"update": 1,
"values": [true]
}
tracks/4/type = "value"
tracks/4/imported = false
tracks/4/enabled = true
tracks/4/path = NodePath("Sprite2D:frame")
tracks/4/interp = 1
tracks/4/loop_wrap = false
tracks/4/keys = {
"times": PackedFloat32Array(0, 0.1, 0.2, 0.3, 0.4),
"transitions": PackedFloat32Array(1, 1, 1, 1, 1),
"update": 1,
"values": [0, 1, 0, 1, 2]
}

[sub_resource type="CompressedTexture2D" id="CompressedTexture2D_xnano"]
load_path = "res://.godot/imported/radio-reset.png-51ba7ec85314782eaa48cf1ee9cb479a.ctex"

[sub_resource type="Animation" id="Animation_ogl2m"]
length = 0.2
loop_mode = 1
tracks/0/type = "value"
tracks/0/imported = false
tracks/0/enabled = true
tracks/0/path = NodePath("Sprite2D:texture")
tracks/0/interp = 1
tracks/0/loop_wrap = false
tracks/0/keys = {
"times": PackedFloat32Array(0),
"transitions": PackedFloat32Array(1),
"update": 1,
"values": [SubResource("CompressedTexture2D_xnano")]
}
tracks/1/type = "value"
tracks/1/imported = false
tracks/1/enabled = true
tracks/1/path = NodePath("Sprite2D:hframes")
tracks/1/interp = 1
tracks/1/loop_wrap = false
tracks/1/keys = {
"times": PackedFloat32Array(0),
"transitions": PackedFloat32Array(1),
"update": 1,
"values": [2]
}
tracks/2/type = "value"
tracks/2/imported = false
tracks/2/enabled = true
tracks/2/path = NodePath("Sprite2D:vframes")
tracks/2/interp = 1
tracks/2/loop_wrap = false
tracks/2/keys = {
"times": PackedFloat32Array(0),
"transitions": PackedFloat32Array(1),
"update": 1,
"values": [1]
}
tracks/3/type = "value"
tracks/3/imported = false
tracks/3/enabled = true
tracks/3/path = NodePath("Sprite2D:visible")
tracks/3/interp = 1
tracks/3/loop_wrap = false
tracks/3/keys = {
"times": PackedFloat32Array(0),
"transitions": PackedFloat32Array(1),
"update": 1,
"values": [true]
}
tracks/4/type = "value"
tracks/4/imported = false
tracks/4/enabled = true
tracks/4/path = NodePath("Sprite2D:frame")
tracks/4/interp = 1
tracks/4/loop_wrap = false
tracks/4/keys = {
"times": PackedFloat32Array(0, 0.1),
"transitions": PackedFloat32Array(1, 1),
"update": 1,
"values": [0, 1]
}

[sub_resource type="AnimationLibrary" id="AnimationLibrary_m68so"]
_data = {
"Blanco": SubResource("Animation_xuuf6"),
"Rayajo": SubResource("Animation_67o2d"),
"default": SubResource("Animation_ogl2m")
}

[node name="RadioReset" type="Node2D"]

[node name="Sprite2D" type="Sprite2D" parent="."]
z_index = 50
texture_filter = 1
position = Vector2(635, 553)
texture = SubResource("CompressedTexture2D_pl4l6")
hframes = 2
vframes = 2
frame = 2
metadata/_aseprite_wizard_config_ = {
"keep_anim_length": false,
"layer": "",
"o_ex_p": "",
"o_folder": "res://assets/sprites/spritesheets",
"o_name": "",
"only_visible": true,
"op_exp": false,
"player": "AnimationPlayer",
"source": "res://assets/sprites/radio-reset.ase"
}

[node name="AnimationPlayer" type="AnimationPlayer" parent="."]
autoplay = "Blanco"
libraries = {
"": SubResource("AnimationLibrary_m68so")
}
